{
  "products": [
    {
      "id": 1,
      "name": "name1",
      "price": "price1",
      "date_pub": "2014-06-25T00:00:00.000Z",
      "images": [
        "../../assets/img/07/art10.jpg",
        "../../assets/img/07/art10.jpg",
        "../../assets/img/07/art10.jpg"
      ],
      "ownerID": 1,
      "size": [
        "small",
        "medium",
        "xl"
      ],
      "color": "red",
      "category": "c1"
    },
    {
      "id": 2,
      "name": "name2",
      "price": "price2",
      "date_pub": "2014-06-25T00:00:00.000Z",
      "images": [
        "../../assets/img/07/art9.jpg",
        "../../assets/img/07/art9.jpg",
        "../../assets/img/07/art9.jpg"
      ],
      "ownerID": 2,
      "size": [
        "small",
        "medium",
        "xl"
      ],
      "color": "blue",
      "category": "c2"
    }
  ]
}